<?xml version="1.0" encoding="utf-8"?>
<!-- Generator: Adobe Illustrator 24.0.0, SVG Export Plug-In . SVG Version: 6.00 Build 0)  -->
<svg version="1.1" id="Layer_1" xmlns="http://www.w3.org/2000/svg" xmlns:xlink="http://www.w3.org/1999/xlink" x="0px" y="0px"
	 viewBox="0 0 864.98 146.99" style="enable-background:new 0 0 864.98 146.99;" xml:space="preserve">
<style type="text/css">
	.st0{fill:#F2A0AF;}
	.st1{fill:#EB6784;}
	.st2{fill:#EE8296;}
</style>
<g>
	<g>
		<g>
			<path class="st0" d="M515.09,138.43c2.26,0,4.21-0.83,5.98-2.54c1.75-1.69,2.6-3.8,2.6-6.44V55.12c0-2.5-0.85-4.54-2.6-6.23
				c-1.77-1.72-3.73-2.55-5.98-2.55c-2.51,0-4.6,0.83-6.37,2.55c-1.76,1.7-2.61,3.73-2.61,6.23v74.32c0,2.63,0.86,4.74,2.61,6.44
				C510.49,137.59,512.57,138.43,515.09,138.43z"/>
			<path class="st0" d="M521.13,17.72c-1.69-1.75-3.66-2.6-6.04-2.6c-2.51,0-4.59,0.86-6.35,2.62c-1.77,1.76-2.63,3.78-2.63,6.15
				c0,2.5,0.86,4.58,2.63,6.35c1.76,1.76,3.84,2.62,6.35,2.62c2.37,0,4.34-0.85,6.04-2.6c1.71-1.77,2.54-3.85,2.54-6.37
				C523.67,21.5,522.84,19.49,521.13,17.72z"/>
		</g>
		<path class="st1" d="M567.33,49.57c-5.61,2.55-10.62,6.01-14.88,10.27c-4.27,4.27-7.69,9.24-10.16,14.78
			c-2.47,5.5-3.73,11.38-3.73,17.47c0,6.22,1.25,12.2,3.73,17.77c2.49,5.62,5.87,10.59,10.06,14.78c4.19,4.19,9.16,7.57,14.77,10.07
			c5.57,2.47,11.62,3.72,17.97,3.72c6.5,0,12.46-1.13,17.7-3.34c5.26-2.22,10.19-5.6,14.65-10.06c0.69-0.57,1.12-1.24,1.43-2.11
			c0.33-0.96,0.5-1.88,0.5-2.76c0-1.95-0.88-3.73-2.69-5.43c-1.77-1.88-3.61-2.76-5.7-2.76c-2.3,0-3.92,0.5-4.81,1.48
			c-6.42,5.74-13.48,8.6-21.08,8.6c-3.96,0.28-7.84-0.39-11.48-2c-3.57-1.57-6.78-3.8-9.55-6.64c-2.74-2.8-4.96-6.07-6.62-9.72
			c-1.66-3.68-2.5-7.57-2.5-11.59c0-3.88,0.81-7.67,2.4-11.27c1.59-3.59,3.79-6.8,6.54-9.55c2.78-2.77,6.02-5.01,9.64-6.64
			c3.68-1.66,7.58-2.51,11.58-2.51c7.47,0,14.12,2.59,19.78,7.7c1.5,1.49,3.42,2.19,5.92,2.19c1.15,0,2.26-0.18,3.41-0.53
			c1.03-0.32,1.89-0.85,2.64-1.6c1.71-1.71,2.54-3.69,2.54-6.06c0-0.76-0.14-1.56-0.42-2.39c-0.25-0.76-0.76-1.53-1.51-2.29
			l-2.56-2.56c-8.36-7.19-18.36-10.83-29.79-10.83C578.88,45.76,572.9,47.04,567.33,49.57z"/>
		<path class="st0" d="M708.62,61.15c-3.61-4.12-7.99-7.57-13.01-10.25c-5.02-2.66-10.46-4.33-16.17-4.97h-0.03
			c-0.97-0.12-1.83-0.18-2.57-0.18h-2.77c-9.53,0-18.16,2.57-25.64,7.65c-7.51,5.08-13.18,11.85-16.87,20.12
			c-1.28,2.95-2.28,5.99-2.97,9.01c-0.7,3.02-1.05,6.24-1.05,9.55c0,3.32,0.35,6.57,1.05,9.66c0.69,3.08,1.68,6.08,2.96,8.9
			c3.69,8.14,9.37,14.88,16.88,20.04c7.48,5.14,16.1,7.74,25.64,7.74c3.71,0,7.2-0.32,10.39-0.96c1.55-0.49,3.19-1.01,4.75-1.54
			c1.52-0.5,2.96-1.06,4.4-1.72c0.73-0.37,1.97-1.02,3.66-1.93c1.85-0.99,3.03-1.58,3.73-1.86l1.9-0.74l0.14,2.03
			c0.11,1.52,0.49,2.7,1.14,3.5c0.75,0.91,1.55,1.61,2.45,2.12c0.88,0.49,1.79,0.8,2.7,0.91c3.59,0.4,6.16,0.06,8.56-2.26
			c1.69-1.63,2.51-3.51,2.51-5.74V92.09c0-5.84-1.06-11.47-3.16-16.74C715.16,70.08,712.26,65.31,708.62,61.15z M701.44,103.97
			c-1.59,3.58-3.75,6.76-6.44,9.45c-2.7,2.7-5.93,4.84-9.58,6.35c-3.63,1.52-7.52,2.29-11.55,2.29c-3.77,0-7.47-0.81-10.99-2.4
			c-3.49-1.57-6.7-3.73-9.52-6.41c-2.81-2.68-5.09-5.86-6.75-9.44c-1.66-3.62-2.51-7.56-2.51-11.71c0-4.01,0.81-7.87,2.4-11.48
			c1.58-3.56,3.78-6.78,6.53-9.54c2.78-2.77,5.96-4.96,9.45-6.54c7.1-3.2,15.64-3.23,22.89,0.1c3.56,1.64,6.76,3.83,9.51,6.52
			c2.75,2.69,4.96,5.91,6.55,9.57c1.59,3.65,2.39,7.48,2.39,11.37C703.83,96.38,703.02,100.37,701.44,103.97z"/>
		<path class="st2" d="M846.58,77.26c0-4.38-0.89-8.52-2.64-12.32c-1.75-3.82-4.16-7.19-7.16-10.01c-3.02-2.83-6.56-5.09-10.52-6.72
			c-3.94-1.63-8.11-2.46-12.37-2.46c-7.4,0-15.2,3.15-23.2,9.37l-0.97,0.76l-0.93-0.81c-3.8-3.29-7.67-5.69-11.51-7.15
			c-8.41-3.17-16.99-2.72-24.17,0.38c-3.96,1.69-7.42,4.01-10.3,6.89c-2.89,2.89-5.21,6.3-6.9,10.12
			c-1.69,3.82-2.54,7.83-2.54,11.95v53.37c-0.22,2.29,0.51,4.03,2.23,5.48c3.45,2.92,8.08,3.29,11.45,0.15
			c1.63-1.51,2.58-3.11,2.91-4.91l-0.02-53.29c0.13-4.65,1.79-8.46,4.93-11.38c3.1-2.9,6.81-4.36,11-4.36
			c3.92,0,7.51,1.42,10.69,4.23c3.2,2.85,4.9,6.64,5.05,11.26v53.42c0,1.94,0.8,3.57,2.44,4.99c1.71,1.49,3.59,2.21,5.74,2.21
			c2.38,0,4.33-0.79,5.96-2.43c1.64-1.64,2.43-3.52,2.43-5.76V77.86c0-5.08,1.68-9,5.01-11.65c3.22-2.58,6.83-3.89,10.73-3.89
			c4.62,0,8.48,1.55,11.45,4.61c2.97,3.03,4.47,6.71,4.47,10.93v52.38c0,2.25,0.79,4.13,2.43,5.76c3.29,3.28,8.25,3.2,11.8,0.12
			c1.71-1.49,2.54-3.09,2.54-4.89V77.26z"/>
		<path class="st1" d="M275.63,136c3.29,3.29,8.25,3.21,11.8,0.12c1.71-1.49,2.54-3.09,2.54-4.89V77.26c0-4.38-0.89-8.52-2.64-12.32
			c-1.75-3.81-4.16-7.18-7.16-10.01c-3.02-2.83-6.56-5.09-10.52-6.72c-3.94-1.63-8.11-2.46-12.38-2.46c-7.4,0-15.2,3.15-23.19,9.37
			l-0.97,0.76l-0.93-0.8c-3.81-3.3-7.68-5.7-11.51-7.15c-8.41-3.17-16.98-2.72-24.18,0.38c-3.95,1.69-7.41,4.01-10.3,6.89
			c-2.88,2.89-5.2,6.3-6.9,10.12c-1.69,3.83-2.54,7.85-2.54,11.95v53.37c-0.22,2.29,0.52,4.03,2.24,5.48
			c1.85,1.56,3.86,2.32,6.15,2.32c2,0,3.73-0.71,5.3-2.17c1.63-1.51,2.58-3.11,2.91-4.91l-0.02-53.29
			c0.13-4.65,1.79-8.46,4.92-11.38c3.11-2.9,6.82-4.36,11.01-4.36c3.91,0,7.5,1.42,10.68,4.23c3.21,2.85,4.91,6.64,5.05,11.26v53.42
			c0,1.93,0.8,3.57,2.45,4.99c1.71,1.49,3.59,2.21,5.74,2.21c2.38,0,4.33-0.79,5.96-2.43c1.64-1.64,2.43-3.52,2.43-5.76V77.86
			c0-5.08,1.68-9,5.01-11.65c3.22-2.58,6.83-3.89,10.72-3.89c4.62,0,8.48,1.55,11.45,4.61c2.97,3.04,4.48,6.71,4.48,10.93v52.38
			C273.21,132.49,274,134.37,275.63,136z"/>
		<path class="st0" d="M388.47,112.14c2.41-5.52,3.63-11.54,3.63-17.88c0-6.35-1.25-12.39-3.73-17.97
			c-2.48-5.6-5.87-10.57-10.06-14.77s-9.13-7.58-14.68-10.07c-5.51-2.47-11.44-3.72-17.64-3.73c-6.51,0.26-12.67,1.65-18.31,4.13
			c-5.66,2.48-10.67,5.83-14.87,9.97c-4.2,4.13-7.51,9.03-9.85,14.54c-2.35,5.51-3.54,11.53-3.54,17.9c0,6.62,1.22,12.8,3.63,18.38
			c2.41,5.6,5.77,10.53,9.95,14.64c4.19,4.13,9.15,7.38,14.74,9.67c11.32,4.62,25.17,4.57,36.19-0.19
			c5.59-2.41,10.52-5.76,14.65-9.95C382.73,122.62,386.05,117.69,388.47,112.14z M373.33,105.83c-1.59,3.65-3.75,6.89-6.43,9.64
			c-2.69,2.76-5.91,4.96-9.57,6.56c-3.67,1.59-7.56,2.4-11.58,2.4s-7.91-0.81-11.56-2.4c-3.66-1.59-6.88-3.8-9.57-6.56
			c-2.7-2.77-4.86-6.01-6.43-9.65c-1.59-3.66-2.4-7.55-2.4-11.56c0-4.27,0.81-8.27,2.41-11.88c1.57-3.56,3.73-6.74,6.44-9.44
			c2.69-2.7,5.91-4.83,9.58-6.35c3.65-1.52,7.54-2.3,11.54-2.3h0.21c8.62,0.56,15.67,3.68,21.04,9.26
			c5.37,5.57,8.31,12.51,8.72,20.63C375.73,98.28,374.92,102.17,373.33,105.83z"/>
		<path class="st2" d="M492.06,129.65V89.72c0-6.34-1.28-12.31-3.82-17.75c-2.55-5.47-5.96-10.24-10.14-14.17
			c-4.2-3.94-9.16-7.06-14.75-9.28c-11.67-4.64-25.27-4.36-36.01,0.27c-5.59,2.42-10.49,5.77-14.54,9.95
			c-4.06,4.19-7.36,9.16-9.78,14.77c-2.41,5.59-3.7,11.65-3.83,18.02v38.71c0,2.2,0.8,3.97,2.44,5.39c3.4,2.94,8.38,3.08,11.82-0.24
			c1.68-1.64,2.5-3.51,2.5-5.74V90.31c0-4.03,0.81-7.84,2.41-11.31c1.57-3.43,3.74-6.51,6.44-9.14c2.71-2.64,5.86-4.7,9.38-6.14
			c3.53-1.45,7.35-2.19,11.34-2.19c4.26,0,8.29,0.81,11.97,2.4c3.66,1.59,6.88,3.76,9.55,6.44c2.7,2.7,4.83,5.89,6.35,9.47
			c1.52,3.6,2.29,7.53,2.29,11.66v38.74c0,2.22,0.77,3.99,2.36,5.4c1.64,1.48,3.54,2.19,5.81,2.19c2.21-0.11,4.12-0.94,5.78-2.55
			C491.28,133.72,492.06,131.88,492.06,129.65z"/>
		<g>
			<path class="st1" d="M111.6,53.72c-3.5-1.53-7.74-0.13-11.63,3.85c-5.4,5.53-9.75,13.53-14.05,22.35
				c0.17,0.33,0.35,0.66,0.52,0.98c9.73-1.19,18.51-4.93,24.03-9.49c4.04-3.34,6.11-7.44,5.68-11.24
				C115.83,57.29,114.09,54.81,111.6,53.72z"/>
			<path class="st1" d="M53.63,54.04c-0.88,0-1.75,0.16-2.57,0.5c-2.48,1.01-4.2,3.44-4.49,6.34c-0.41,4.16,2.12,8.58,6.93,12.14
				c6.84,5.05,14.64,7.5,22.35,8.13c0.15-0.32,0.31-0.65,0.46-0.97c-3.96-7.39-8.03-14.4-13.58-20.86
				C59.78,55.86,56.57,54.04,53.63,54.04z"/>
			<path class="st1" d="M145.97,81.39c0-35.68-28.92-64.6-64.6-64.6c-35.68,0-64.6,28.92-64.6,64.6c0,35.68,28.92,64.6,64.6,64.6
				c14.88,0,28.58-5.05,39.5-13.5l15.24,3.98L132,121.5C140.74,110.48,145.97,96.55,145.97,81.39z M115.27,79.28
				c-6.11,5.06-14.77,8.84-23.97,10.58c4.69,8.28,10.2,16.62,18.29,24.69l-5.39,7.32c-10.32-10.3-16.64-20.75-22.18-30.98
				c-0.44,0.01-0.88,0.03-1.34,0.03c-6.12,12.81-12.72,25.46-22.43,32.8l-4.5-8.1c7.14-5.39,12.65-15.02,17.72-25.31
				c-7.12-1.06-14.97-3.67-22.39-9.15c-7.61-5.61-11.52-13.41-10.73-21.39c0.65-6.61,4.48-12.11,9.99-14.35
				c6.59-2.68,14.16-0.04,20.26,7.06c4.97,5.79,8.87,11.98,12.36,18.21c3.95-7.72,8.27-14.95,13.55-20.36
				c6.26-6.42,13.56-8.47,20.02-5.64c5.36,2.35,9.13,7.81,9.85,14.24C125.2,66.39,121.88,73.81,115.27,79.28z"/>
		</g>
	</g>
	<g>
		<path class="st1" d="M669.89,15.68h11.94c0.47,0,2.24,0.03,2.24,2.14c0,2.17-1.73,2.17-2.24,2.17h-11.94v6.51
			c0,1.97,0.54,2.34,3.97,2.34c1.02,0,5.77-0.17,6.31-0.17c1.32,0,2.2,0.47,2.2,2.04c0,0.44-0.1,1.9-1.7,2.17
			c-0.95,0.17-5.05,0.24-5.39,0.24c-5.46,0-9.87,0-9.87-6v-7.12h-8.82c-0.47,0-2.24,0-2.24-2.14s1.73-2.17,2.24-2.17h8.82v-4.75
			h-6.48c-0.47,0-2.24,0-2.24-2.14c0-2.17,1.7-2.17,2.24-2.17h20.56c0.47,0,2.24,0,2.24,2.14c0,2.17-1.73,2.17-2.24,2.17h-9.6V15.68
			z"/>
		<path class="st1" d="M722.64,26.23c0.51,0,2.31,0,2.31,2.24c0,1.83-1.12,2.27-2.31,2.27h-25.44c-0.51,0-2.31,0-2.31-2.24
			c0-1.87,1.15-2.27,2.31-2.27H722.64z M720.06,7.88c0.54,0,2.31,0,2.31,2.24c0,1.83-1.12,2.27-2.31,2.27h-20.15
			c-0.51,0-2.31,0-2.31-2.24c0-1.83,1.15-2.27,2.31-2.27H720.06z"/>
		<path class="st1" d="M746.41,6.96c-0.03-0.24-0.1-0.54-0.1-0.88c0-1.32,1.53-1.8,2.48-1.8c1.63,0,1.87,1.09,2,1.87l0.78,4.21
			l7.97-1.26c2.31-0.37,2.58,1.56,2.58,2.27c0,1.46-1.09,1.87-1.93,2l-7.84,1.22l0.71,3.8l9.43-1.49c0.31-0.03,0.51-0.07,0.75-0.07
			c1.26,0,2,0.95,2,2.37c0,1.32-0.98,1.83-1.93,1.97l-9.43,1.46l1.7,8.99c0.07,0.34,0.07,0.64,0.07,0.92c0,1.29-1.53,1.8-2.54,1.8
			c-1.63,0-1.83-1.09-1.97-1.9l-1.7-9.09l-11.13,1.73c-0.2,0.03-0.37,0.03-0.61,0.03c-1.26,0-2-0.95-2-2.31c0-1.53,1.22-1.9,1.93-2
			l11.03-1.73l-0.71-3.8l-8.18,1.29c-0.17,0.03-0.41,0.03-0.64,0.03c-1.19,0-1.97-0.92-1.97-2.31s0.98-1.87,1.93-2l8.07-1.26
			L746.41,6.96z"/>
		<path class="st1" d="M786.2,12.12c-0.03-0.17-0.03-0.37-0.03-0.61c0-1.63,1.8-1.73,2.17-1.73c1.53,0,1.73,1.12,1.83,1.7l0.71,4.21
			l8.45-1.26c0.24-0.03,1.15-0.17,1.63-0.17c1.09,0,2.14,0.68,2.14,2.14c0,1.15-1.29,3.49-2.48,5.7c-1.56,2.82-2.2,3.97-3.46,3.97
			c-1.12,0-2.04-0.75-2.04-1.73c0-0.58,0.1-0.78,1.22-2.48c0.61-0.95,1.63-2.78,1.63-3.09s-0.24-0.31-0.68-0.24l-5.8,0.85
			l2.21,12.93c0.03,0.2,0.03,0.41,0.03,0.61c0,1.49-1.36,1.83-2.14,1.83c-1.59,0-1.8-1.26-1.9-1.8l-2.17-12.96l-6,0.88
			c-2.17,0.31-2.34-1.36-2.34-1.93c0-1.19,0.71-1.7,1.76-1.83l5.97-0.85L786.2,12.12z"/>
		<path class="st1" d="M846.58,15.37c0,1.49-4.58,7.77-10.92,12.18c-6.21,4.34-12.59,5.97-13.84,5.97c-1.56,0-2.44-1.32-2.44-2.68
			c0-1.63,0.81-1.83,2.92-2.34c7.67-1.93,14.32-6.65,18.96-13.06c1.59-2.17,1.76-2.44,2.75-2.44
			C845.02,13,846.58,14.02,846.58,15.37z M826.67,8.42c4.27,1.93,4.51,2.61,4.51,3.63c0,1.36-1.05,2.54-2.24,2.54
			c-0.61,0-1.15-0.31-1.9-0.71c-1.87-1.09-3.05-1.6-5.5-2.65c-1.22-0.54-2.1-0.92-2.1-2.14c0-1.09,0.85-2.41,2.34-2.41
			C822.83,6.69,826.06,8.15,826.67,8.42z"/>
	</g>
</g>
</svg>
